year,trimester,good,great,montreal,food,lamb,jazz,service,modavie,place,nice,wine,live
2009,1,1,2,1,1,2,2,1,1,2,0,2,1
2009,2,0,0,1,0,1,1,0,0,0,0,1,1
2009,3,3,2,1,1,3,3,1,2,1,1,2,3
2009,4,2,0,2,1,3,2,1,2,1,2,0,1
2010,1,2,2,1,1,1,1,2,2,0,0,3,1
2010,2,0,2,3,3,1,1,2,2,2,1,0,1
2010,3,3,1,2,1,1,3,2,2,0,1,2,3
2010,4,0,1,0,0,0,0,0,0,0,0,1,0
2011,1,0,2,0,0,0,2,0,1,2,1,1,0
2011,2,3,2,3,3,3,4,1,1,1,2,2,4
2011,3,0,0,0,0,0,0,0,0,0,0,0,0
2011,4,0,1,2,1,1,1,1,0,0,0,1,1
2012,1,1,1,1,1,1,0,0,0,1,0,0,1
2012,2,1,0,0,0,1,1,1,0,0,0,1,1
2012,3,0,2,2,3,0,1,2,1,1,2,0,2
2012,4,2,2,2,2,1,2,2,1,1,1,1,1
2013,1,1,2,1,1,0,1,0,0,1,0,0,1
2013,2,2,2,3,2,0,3,3,2,1,3,2,2
2013,3,5,6,3,3,4,1,5,2,4,1,5,0
2013,4,2,1,1,2,2,1,1,1,0,1,1,1
2014,1,3,2,3,4,2,3,2,2,3,1,0,3
2014,2,4,7,6,8,8,7,6,4,5,1,1,5
2014,3,6,6,6,7,5,5,7,1,4,4,3,4
2014,4,8,6,6,5,4,2,4,2,3,3,3,5
2015,1,1,1,1,1,0,0,0,0,0,1,1,0
2015,2,0,0,0,0,0,0,0,0,0,0,0,0
2015,3,0,0,0,0,0,0,0,0,0,0,0,0
2015,4,0,0,0,0,0,0,0,0,0,0,0,0
